%YAML 1.1
%TAG !u! tag:unity3d.com,2011:
--- !u!1001 &100100000
Prefab:
  m_ObjectHideFlags: 1
  serializedVersion: 2
  m_Modification:
    m_TransformParent: {fileID: 0}
    m_Modifications: []
    m_RemovedComponents: []
  m_ParentPrefab: {fileID: 0}
  m_RootGameObject: {fileID: 1758944504047406}
  m_IsPrefabParent: 1
--- !u!1 &1053313795000198
GameObject:
  m_ObjectHideFlags: 0
  m_PrefabParentObject: {fileID: 0}
  m_PrefabInternal: {fileID: 100100000}
  serializedVersion: 5
  m_Component:
  - component: {fileID: 4531547492519190}
  - component: {fileID: 8195094280857945352}
  - component: {fileID: 3664157344619913924}
  m_Layer: 31
  m_Name: Layer1
  m_TagString: Untagged
  m_Icon: {fileID: 0}
  m_NavMeshLayer: 0
  m_StaticEditorFlags: 0
  m_IsActive: 1
--- !u!1 &1758944504047406
GameObject:
  m_ObjectHideFlags: 0
  m_PrefabParentObject: {fileID: 0}
  m_PrefabInternal: {fileID: 100100000}
  serializedVersion: 5
  m_Component:
  - component: {fileID: 4689278476537890}
  - component: {fileID: 2569400266292622196}
  m_Layer: 31
  m_Name: Temple
  m_TagString: Untagged
  m_Icon: {fileID: 0}
  m_NavMeshLayer: 0
  m_StaticEditorFlags: 0
  m_IsActive: 1
--- !u!4 &4531547492519190
Transform:
  m_ObjectHideFlags: 1
  m_PrefabParentObject: {fileID: 0}
  m_PrefabInternal: {fileID: 100100000}
  m_GameObject: {fileID: 1053313795000198}
  m_LocalRotation: {x: -0, y: -0, z: -0, w: 1}
  m_LocalPosition: {x: 0, y: 0, z: 0}
  m_LocalScale: {x: 1, y: 1, z: 1}
  m_Children: []
  m_Father: {fileID: 4689278476537890}
  m_RootOrder: 0
  m_LocalEulerAnglesHint: {x: 0, y: 0, z: 0}
--- !u!4 &4689278476537890
Transform:
  m_ObjectHideFlags: 1
  m_PrefabParentObject: {fileID: 0}
  m_PrefabInternal: {fileID: 100100000}
  m_GameObject: {fileID: 1758944504047406}
  m_LocalRotation: {x: 0, y: 0, z: 0, w: 1}
  m_LocalPosition: {x: 0, y: 0, z: 0}
  m_LocalScale: {x: 1, y: 1, z: 1}
  m_Children:
  - {fileID: 4531547492519190}
  m_Father: {fileID: 0}
  m_RootOrder: 0
  m_LocalEulerAnglesHint: {x: 0, y: 0, z: 0}
--- !u!114 &114424139992145278
MonoBehaviour:
  m_ObjectHideFlags: 0
  m_PrefabParentObject: {fileID: 0}
  m_PrefabInternal: {fileID: 0}
  m_GameObject: {fileID: 0}
  m_Enabled: 1
  m_EditorHideFlags: 1
  m_Script: {fileID: 12395, guid: 0000000000000000e000000000000000, type: 0}
  m_Name: Palette Settings
  m_EditorClassIdentifier: 
  cellSizing: 0
--- !u!156049354 &2569400266292622196
Grid:
  m_ObjectHideFlags: 1
  m_PrefabParentObject: {fileID: 0}
  m_PrefabInternal: {fileID: 100100000}
  m_GameObject: {fileID: 1758944504047406}
  m_Enabled: 1
  m_CellSize: {x: 1, y: 1, z: 0}
  m_CellGap: {x: 0, y: 0, z: 0}
  m_CellLayout: 0
  m_CellSwizzle: 0
--- !u!483693784 &3664157344619913924
TilemapRenderer:
  m_ObjectHideFlags: 1
  m_PrefabParentObject: {fileID: 0}
  m_PrefabInternal: {fileID: 100100000}
  m_GameObject: {fileID: 1053313795000198}
  m_Enabled: 0
  m_CastShadows: 0
  m_ReceiveShadows: 0
  m_DynamicOccludee: 0
  m_MotionVectors: 1
  m_LightProbeUsage: 0
  m_ReflectionProbeUsage: 0
  m_Materials:
  - {fileID: 10754, guid: 0000000000000000f000000000000000, type: 0}
  m_StaticBatchInfo:
    firstSubMesh: 0
    subMeshCount: 0
  m_StaticBatchRoot: {fileID: 0}
  m_ProbeAnchor: {fileID: 0}
  m_LightProbeVolumeOverride: {fileID: 0}
  m_ScaleInLightmap: 1
  m_PreserveUVs: 0
  m_IgnoreNormalsForChartDetection: 0
  m_ImportantGI: 0
  m_StitchLightmapSeams: 0
  m_SelectedEditorRenderState: 0
  m_MinimumChartSize: 4
  m_AutoUVMaxDistance: 0.5
  m_AutoUVMaxAngle: 89
  m_LightmapParameters: {fileID: 0}
  m_SortingLayerID: 0
  m_SortingLayer: 0
  m_SortingOrder: 0
  m_ChunkSize: {x: 32, y: 32, z: 32}
  m_MaxChunkCount: 16
  m_MaxFrameAge: 16
  m_SortOrder: 0
  m_MaskInteraction: 0
--- !u!1839735485 &8195094280857945352
Tilemap:
  m_ObjectHideFlags: 1
  m_PrefabParentObject: {fileID: 0}
  m_PrefabInternal: {fileID: 100100000}
  m_GameObject: {fileID: 1053313795000198}
  m_Enabled: 1
  m_Tiles:
  - first: {x: -2, y: -10, z: 0}
    second:
      m_TileIndex: 109
      m_TileSpriteIndex: 109
      m_TileMatrixIndex: 0
      m_TileColorIndex: 0
      m_ObjectToInstantiate: {fileID: 0}
      m_TileFlags: 1
      m_ColliderType: 1
  - first: {x: -1, y: -10, z: 0}
    second:
      m_TileIndex: 110
      m_TileSpriteIndex: 110
      m_TileMatrixIndex: 0
      m_TileColorIndex: 0
      m_ObjectToInstantiate: {fileID: 0}
      m_TileFlags: 1
      m_ColliderType: 1
  - first: {x: 0, y: -10, z: 0}
    second:
      m_TileIndex: 111
      m_TileSpriteIndex: 111
      m_TileMatrixIndex: 0
      m_TileColorIndex: 0
      m_ObjectToInstantiate: {fileID: 0}
      m_TileFlags: 1
      m_ColliderType: 1
  - first: {x: 1, y: -10, z: 0}
    second:
      m_TileIndex: 112
      m_TileSpriteIndex: 112
      m_TileMatrixIndex: 0
      m_TileColorIndex: 0
      m_ObjectToInstantiate: {fileID: 0}
      m_TileFlags: 1
      m_ColliderType: 1
  - first: {x: 2, y: -10, z: 0}
    second:
      m_TileIndex: 113
      m_TileSpriteIndex: 113
      m_TileMatrixIndex: 0
      m_TileColorIndex: 0
      m_ObjectToInstantiate: {fileID: 0}
      m_TileFlags: 1
      m_ColliderType: 1
  - first: {x: 3, y: -10, z: 0}
    second:
      m_TileIndex: 114
      m_TileSpriteIndex: 114
      m_TileMatrixIndex: 0
      m_TileColorIndex: 0
      m_ObjectToInstantiate: {fileID: 0}
      m_TileFlags: 1
      m_ColliderType: 1
  - first: {x: 4, y: -10, z: 0}
    second:
      m_TileIndex: 115
      m_TileSpriteIndex: 115
      m_TileMatrixIndex: 0
      m_TileColorIndex: 0
      m_ObjectToInstantiate: {fileID: 0}
      m_TileFlags: 1
      m_ColliderType: 1
  - first: {x: 5, y: -10, z: 0}
    second:
      m_TileIndex: 116
      m_TileSpriteIndex: 116
      m_TileMatrixIndex: 0
      m_TileColorIndex: 0
      m_ObjectToInstantiate: {fileID: 0}
      m_TileFlags: 1
      m_ColliderType: 1
  - first: {x: -2, y: -9, z: 0}
    second:
      m_TileIndex: 101
      m_TileSpriteIndex: 101
      m_TileMatrixIndex: 0
      m_TileColorIndex: 0
      m_ObjectToInstantiate: {fileID: 0}
      m_TileFlags: 1
      m_ColliderType: 1
  - first: {x: -1, y: -9, z: 0}
    second:
      m_TileIndex: 102
      m_TileSpriteIndex: 102
      m_TileMatrixIndex: 0
      m_TileColorIndex: 0
      m_ObjectToInstantiate: {fileID: 0}
      m_TileFlags: 1
      m_ColliderType: 1
  - first: {x: 0, y: -9, z: 0}
    second:
      m_TileIndex: 103
      m_TileSpriteIndex: 103
      m_TileMatrixIndex: 0
      m_TileColorIndex: 0
      m_ObjectToInstantiate: {fileID: 0}
      m_TileFlags: 1
      m_ColliderType: 1
  - first: {x: 1, y: -9, z: 0}
    second:
      m_TileIndex: 104
      m_TileSpriteIndex: 104
      m_TileMatrixIndex: 0
      m_TileColorIndex: 0
      m_ObjectToInstantiate: {fileID: 0}
      m_TileFlags: 1
      m_ColliderType: 1
  - first: {x: 2, y: -9, z: 0}
    second:
      m_TileIndex: 105
      m_TileSpriteIndex: 105
      m_TileMatrixIndex: 0
      m_TileColorIndex: 0
      m_ObjectToInstantiate: {fileID: 0}
      m_TileFlags: 1
      m_ColliderType: 1
  - first: {x: 3, y: -9, z: 0}
    second:
      m_TileIndex: 106
      m_TileSpriteIndex: 106
      m_TileMatrixIndex: 0
      m_TileColorIndex: 0
      m_ObjectToInstantiate: {fileID: 0}
      m_TileFlags: 1
      m_ColliderType: 1
  - first: {x: 4, y: -9, z: 0}
    second:
      m_TileIndex: 107
      m_TileSpriteIndex: 107
      m_TileMatrixIndex: 0
      m_TileColorIndex: 0
      m_ObjectToInstantiate: {fileID: 0}
      m_TileFlags: 1
      m_ColliderType: 1
  - first: {x: 5, y: -9, z: 0}
    second:
      m_TileIndex: 108
      m_TileSpriteIndex: 108
      m_TileMatrixIndex: 0
      m_TileColorIndex: 0
      m_ObjectToInstantiate: {fileID: 0}
      m_TileFlags: 1
      m_ColliderType: 1
  - first: {x: -2, y: -8, z: 0}
    second:
      m_TileIndex: 93
      m_TileSpriteIndex: 93
      m_TileMatrixIndex: 0
      m_TileColorIndex: 0
      m_ObjectToInstantiate: {fileID: 0}
      m_TileFlags: 1
      m_ColliderType: 1
  - first: {x: -1, y: -8, z: 0}
    second:
      m_TileIndex: 94
      m_TileSpriteIndex: 94
      m_TileMatrixIndex: 0
      m_TileColorIndex: 0
      m_ObjectToInstantiate: {fileID: 0}
      m_TileFlags: 1
      m_ColliderType: 1
  - first: {x: 0, y: -8, z: 0}
    second:
      m_TileIndex: 95
      m_TileSpriteIndex: 95
      m_TileMatrixIndex: 0
      m_TileColorIndex: 0
      m_ObjectToInstantiate: {fileID: 0}
      m_TileFlags: 1
      m_ColliderType: 1
  - first: {x: 1, y: -8, z: 0}
    second:
      m_TileIndex: 96
      m_TileSpriteIndex: 96
      m_TileMatrixIndex: 0
      m_TileColorIndex: 0
      m_ObjectToInstantiate: {fileID: 0}
      m_TileFlags: 1
      m_ColliderType: 1
  - first: {x: 2, y: -8, z: 0}
    second:
      m_TileIndex: 97
      m_TileSpriteIndex: 97
      m_TileMatrixIndex: 0
      m_TileColorIndex: 0
      m_ObjectToInstantiate: {fileID: 0}
      m_TileFlags: 1
      m_ColliderType: 1
  - first: {x: 3, y: -8, z: 0}
    second:
      m_TileIndex: 98
      m_TileSpriteIndex: 98
      m_TileMatrixIndex: 0
      m_TileColorIndex: 0
      m_ObjectToInstantiate: {fileID: 0}
      m_TileFlags: 1
      m_ColliderType: 1
  - first: {x: 4, y: -8, z: 0}
    second:
      m_TileIndex: 99
      m_TileSpriteIndex: 99
      m_TileMatrixIndex: 0
      m_TileColorIndex: 0
      m_ObjectToInstantiate: {fileID: 0}
      m_TileFlags: 1
      m_ColliderType: 1
  - first: {x: 5, y: -8, z: 0}
    second:
      m_TileIndex: 100
      m_TileSpriteIndex: 100
      m_TileMatrixIndex: 0
      m_TileColorIndex: 0
      m_ObjectToInstantiate: {fileID: 0}
      m_TileFlags: 1
      m_ColliderType: 1
  - first: {x: -2, y: -7, z: 0}
    second:
      m_TileIndex: 85
      m_TileSpriteIndex: 85
      m_TileMatrixIndex: 0
      m_TileColorIndex: 0
      m_ObjectToInstantiate: {fileID: 0}
      m_TileFlags: 1
      m_ColliderType: 1
  - first: {x: -1, y: -7, z: 0}
    second:
      m_TileIndex: 86
      m_TileSpriteIndex: 86
      m_TileMatrixIndex: 0
      m_TileColorIndex: 0
      m_ObjectToInstantiate: {fileID: 0}
      m_TileFlags: 1
      m_ColliderType: 1
  - first: {x: 0, y: -7, z: 0}
    second:
      m_TileIndex: 87
      m_TileSpriteIndex: 87
      m_TileMatrixIndex: 0
      m_TileColorIndex: 0
      m_ObjectToInstantiate: {fileID: 0}
      m_TileFlags: 1
      m_ColliderType: 1
  - first: {x: 1, y: -7, z: 0}
    second:
      m_TileIndex: 88
      m_TileSpriteIndex: 88
      m_TileMatrixIndex: 0
      m_TileColorIndex: 0
      m_ObjectToInstantiate: {fileID: 0}
      m_TileFlags: 1
      m_ColliderType: 1
  - first: {x: 2, y: -7, z: 0}
    second:
      m_TileIndex: 89
      m_TileSpriteIndex: 89
      m_TileMatrixIndex: 0
      m_TileColorIndex: 0
      m_ObjectToInstantiate: {fileID: 0}
      m_TileFlags: 1
      m_ColliderType: 1
  - first: {x: 3, y: -7, z: 0}
    second:
      m_TileIndex: 90
      m_TileSpriteIndex: 90
      m_TileMatrixIndex: 0
      m_TileColorIndex: 0
      m_ObjectToInstantiate: {fileID: 0}
      m_TileFlags: 1
      m_ColliderType: 1
  - first: {x: 4, y: -7, z: 0}
    second:
      m_TileIndex: 91
      m_TileSpriteIndex: 91
      m_TileMatrixIndex: 0
      m_TileColorIndex: 0
      m_ObjectToInstantiate: {fileID: 0}
      m_TileFlags: 1
      m_ColliderType: 1
  - first: {x: 5, y: -7, z: 0}
    second:
      m_TileIndex: 92
      m_TileSpriteIndex: 92
      m_TileMatrixIndex: 0
      m_TileColorIndex: 0
      m_ObjectToInstantiate: {fileID: 0}
      m_TileFlags: 1
      m_ColliderType: 1
  - first: {x: -2, y: -6, z: 0}
    second:
      m_TileIndex: 71
      m_TileSpriteIndex: 71
      m_TileMatrixIndex: 0
      m_TileColorIndex: 0
      m_ObjectToInstantiate: {fileID: 0}
      m_TileFlags: 1
      m_ColliderType: 1
  - first: {x: -1, y: -6, z: 0}
    second:
      m_TileIndex: 72
      m_TileSpriteIndex: 72
      m_TileMatrixIndex: 0
      m_TileColorIndex: 0
      m_ObjectToInstantiate: {fileID: 0}
      m_TileFlags: 1
      m_ColliderType: 1
  - first: {x: 0, y: -6, z: 0}
    second:
      m_TileIndex: 73
      m_TileSpriteIndex: 73
      m_TileMatrixIndex: 0
      m_TileColorIndex: 0
      m_ObjectToInstantiate: {fileID: 0}
      m_TileFlags: 1
      m_ColliderType: 1
  - first: {x: 1, y: -6, z: 0}
    second:
      m_TileIndex: 74
      m_TileSpriteIndex: 74
      m_TileMatrixIndex: 0
      m_TileColorIndex: 0
      m_ObjectToInstantiate: {fileID: 0}
      m_TileFlags: 1
      m_ColliderType: 1
  - first: {x: 2, y: -6, z: 0}
    second:
      m_TileIndex: 75
      m_TileSpriteIndex: 75
      m_TileMatrixIndex: 0
      m_TileColorIndex: 0
      m_ObjectToInstantiate: {fileID: 0}
      m_TileFlags: 1
      m_ColliderType: 1
  - first: {x: 3, y: -6, z: 0}
    second:
      m_TileIndex: 76
      m_TileSpriteIndex: 76
      m_TileMatrixIndex: 0
      m_TileColorIndex: 0
      m_ObjectToInstantiate: {fileID: 0}
      m_TileFlags: 1
      m_ColliderType: 1
  - first: {x: 4, y: -6, z: 0}
    second:
      m_TileIndex: 77
      m_TileSpriteIndex: 77
      m_TileMatrixIndex: 0
      m_TileColorIndex: 0
      m_ObjectToInstantiate: {fileID: 0}
      m_TileFlags: 1
      m_ColliderType: 1
  - first: {x: 5, y: -6, z: 0}
    second:
      m_TileIndex: 78
      m_TileSpriteIndex: 78
      m_TileMatrixIndex: 0
      m_TileColorIndex: 0
      m_ObjectToInstantiate: {fileID: 0}
      m_TileFlags: 1
      m_ColliderType: 1
  - first: {x: 6, y: -6, z: 0}
    second:
      m_TileIndex: 79
      m_TileSpriteIndex: 79
      m_TileMatrixIndex: 0
      m_TileColorIndex: 0
      m_ObjectToInstantiate: {fileID: 0}
      m_TileFlags: 1
      m_ColliderType: 1
  - first: {x: 7, y: -6, z: 0}
    second:
      m_TileIndex: 80
      m_TileSpriteIndex: 80
      m_TileMatrixIndex: 0
      m_TileColorIndex: 0
      m_ObjectToInstantiate: {fileID: 0}
      m_TileFlags: 1
      m_ColliderType: 1
  - first: {x: 8, y: -6, z: 0}
    second:
      m_TileIndex: 81
      m_TileSpriteIndex: 81
      m_TileMatrixIndex: 0
      m_TileColorIndex: 0
      m_ObjectToInstantiate: {fileID: 0}
      m_TileFlags: 1
      m_ColliderType: 1
  - first: {x: 9, y: -6, z: 0}
    second:
      m_TileIndex: 82
      m_TileSpriteIndex: 82
      m_TileMatrixIndex: 0
      m_TileColorIndex: 0
      m_ObjectToInstantiate: {fileID: 0}
      m_TileFlags: 1
      m_ColliderType: 1
  - first: {x: 10, y: -6, z: 0}
    second:
      m_TileIndex: 83
      m_TileSpriteIndex: 83
      m_TileMatrixIndex: 0
      m_TileColorIndex: 0
      m_ObjectToInstantiate: {fileID: 0}
      m_TileFlags: 1
      m_ColliderType: 1
  - first: {x: 11, y: -6, z: 0}
    second:
      m_TileIndex: 84
      m_TileSpriteIndex: 84
      m_TileMatrixIndex: 0
      m_TileColorIndex: 0
      m_ObjectToInstantiate: {fileID: 0}
      m_TileFlags: 1
      m_ColliderType: 1
  - first: {x: -2, y: -5, z: 0}
    second:
      m_TileIndex: 57
      m_TileSpriteIndex: 57
      m_TileMatrixIndex: 0
      m_TileColorIndex: 0
      m_ObjectToInstantiate: {fileID: 0}
      m_TileFlags: 1
      m_ColliderType: 1
  - first: {x: -1, y: -5, z: 0}
    second:
      m_TileIndex: 58
      m_TileSpriteIndex: 58
      m_TileMatrixIndex: 0
      m_TileColorIndex: 0
      m_ObjectToInstantiate: {fileID: 0}
      m_TileFlags: 1
      m_ColliderType: 1
  - first: {x: 0, y: -5, z: 0}
    second:
      m_TileIndex: 59
      m_TileSpriteIndex: 59
      m_TileMatrixIndex: 0
      m_TileColorIndex: 0
      m_ObjectToInstantiate: {fileID: 0}
      m_TileFlags: 1
      m_ColliderType: 1
  - first: {x: 1, y: -5, z: 0}
    second:
      m_TileIndex: 60
      m_TileSpriteIndex: 60
      m_TileMatrixIndex: 0
      m_TileColorIndex: 0
      m_ObjectToInstantiate: {fileID: 0}
      m_TileFlags: 1
      m_ColliderType: 1
  - first: {x: 2, y: -5, z: 0}
    second:
      m_TileIndex: 61
      m_TileSpriteIndex: 61
      m_TileMatrixIndex: 0
      m_TileColorIndex: 0
      m_ObjectToInstantiate: {fileID: 0}
      m_TileFlags: 1
      m_ColliderType: 1
  - first: {x: 3, y: -5, z: 0}
    second:
      m_TileIndex: 62
      m_TileSpriteIndex: 62
      m_TileMatrixIndex: 0
      m_TileColorIndex: 0
      m_ObjectToInstantiate: {fileID: 0}
      m_TileFlags: 1
      m_ColliderType: 1
  - first: {x: 4, y: -5, z: 0}
    second:
      m_TileIndex: 63
      m_TileSpriteIndex: 63
      m_TileMatrixIndex: 0
      m_TileColorIndex: 0
      m_ObjectToInstantiate: {fileID: 0}
      m_TileFlags: 1
      m_ColliderType: 1
  - first: {x: 5, y: -5, z: 0}
    second:
      m_TileIndex: 64
      m_TileSpriteIndex: 64
      m_TileMatrixIndex: 0
      m_TileColorIndex: 0
      m_ObjectToInstantiate: {fileID: 0}
      m_TileFlags: 1
      m_ColliderType: 1
  - first: {x: 6, y: -5, z: 0}
    second:
      m_TileIndex: 65
      m_TileSpriteIndex: 65
      m_TileMatrixIndex: 0
      m_TileColorIndex: 0
      m_ObjectToInstantiate: {fileID: 0}
      m_TileFlags: 1
      m_ColliderType: 1
  - first: {x: 7, y: -5, z: 0}
    second:
      m_TileIndex: 66
      m_TileSpriteIndex: 66
      m_TileMatrixIndex: 0
      m_TileColorIndex: 0
      m_ObjectToInstantiate: {fileID: 0}
      m_TileFlags: 1
      m_ColliderType: 1
  - first: {x: 8, y: -5, z: 0}
    second:
      m_TileIndex: 67
      m_TileSpriteIndex: 67
      m_TileMatrixIndex: 0
      m_TileColorIndex: 0
      m_ObjectToInstantiate: {fileID: 0}
      m_TileFlags: 1
      m_ColliderType: 1
  - first: {x: 9, y: -5, z: 0}
    second:
      m_TileIndex: 68
      m_TileSpriteIndex: 68
      m_TileMatrixIndex: 0
      m_TileColorIndex: 0
      m_ObjectToInstantiate: {fileID: 0}
      m_TileFlags: 1
      m_ColliderType: 1
  - first: {x: 10, y: -5, z: 0}
    second:
      m_TileIndex: 69
      m_TileSpriteIndex: 69
      m_TileMatrixIndex: 0
      m_TileColorIndex: 0
      m_ObjectToInstantiate: {fileID: 0}
      m_TileFlags: 1
      m_ColliderType: 1
  - first: {x: 11, y: -5, z: 0}
    second:
      m_TileIndex: 70
      m_TileSpriteIndex: 70
      m_TileMatrixIndex: 0
      m_TileColorIndex: 0
      m_ObjectToInstantiate: {fileID: 0}
      m_TileFlags: 1
      m_ColliderType: 1
  - first: {x: -1, y: -4, z: 0}
    second:
      m_TileIndex: 45
      m_TileSpriteIndex: 45
      m_TileMatrixIndex: 0
      m_TileColorIndex: 0
      m_ObjectToInstantiate: {fileID: 0}
      m_TileFlags: 1
      m_ColliderType: 1
  - first: {x: 0, y: -4, z: 0}
    second:
      m_TileIndex: 46
      m_TileSpriteIndex: 46
      m_TileMatrixIndex: 0
      m_TileColorIndex: 0
      m_ObjectToInstantiate: {fileID: 0}
      m_TileFlags: 1
      m_ColliderType: 1
  - first: {x: 1, y: -4, z: 0}
    second:
      m_TileIndex: 47
      m_TileSpriteIndex: 47
      m_TileMatrixIndex: 0
      m_TileColorIndex: 0
      m_ObjectToInstantiate: {fileID: 0}
      m_TileFlags: 1
      m_ColliderType: 1
  - first: {x: 2, y: -4, z: 0}
    second:
      m_TileIndex: 48
      m_TileSpriteIndex: 48
      m_TileMatrixIndex: 0
      m_TileColorIndex: 0
      m_ObjectToInstantiate: {fileID: 0}
      m_TileFlags: 1
      m_ColliderType: 1
  - first: {x: 3, y: -4, z: 0}
    second:
      m_TileIndex: 49
      m_TileSpriteIndex: 49
      m_TileMatrixIndex: 0
      m_TileColorIndex: 0
      m_ObjectToInstantiate: {fileID: 0}
      m_TileFlags: 1
      m_ColliderType: 1
  - first: {x: 4, y: -4, z: 0}
    second:
      m_TileIndex: 50
      m_TileSpriteIndex: 50
      m_TileMatrixIndex: 0
      m_TileColorIndex: 0
      m_ObjectToInstantiate: {fileID: 0}
      m_TileFlags: 1
      m_ColliderType: 1
  - first: {x: 5, y: -4, z: 0}
    second:
      m_TileIndex: 51
      m_TileSpriteIndex: 51
      m_TileMatrixIndex: 0
      m_TileColorIndex: 0
      m_ObjectToInstantiate: {fileID: 0}
      m_TileFlags: 1
      m_ColliderType: 1
  - first: {x: 6, y: -4, z: 0}
    second:
      m_TileIndex: 52
      m_TileSpriteIndex: 52
      m_TileMatrixIndex: 0
      m_TileColorIndex: 0
      m_ObjectToInstantiate: {fileID: 0}
      m_TileFlags: 1
      m_ColliderType: 1
  - first: {x: 7, y: -4, z: 0}
    second:
      m_TileIndex: 53
      m_TileSpriteIndex: 53
      m_TileMatrixIndex: 0
      m_TileColorIndex: 0
      m_ObjectToInstantiate: {fileID: 0}
      m_TileFlags: 1
      m_ColliderType: 1
  - first: {x: 8, y: -4, z: 0}
    second:
      m_TileIndex: 54
      m_TileSpriteIndex: 54
      m_TileMatrixIndex: 0
      m_TileColorIndex: 0
      m_ObjectToInstantiate: {fileID: 0}
      m_TileFlags: 1
      m_ColliderType: 1
  - first: {x: 9, y: -4, z: 0}
    second:
      m_TileIndex: 55
      m_TileSpriteIndex: 55
      m_TileMatrixIndex: 0
      m_TileColorIndex: 0
      m_ObjectToInstantiate: {fileID: 0}
      m_TileFlags: 1
      m_ColliderType: 1
  - first: {x: 10, y: -4, z: 0}
    second:
      m_TileIndex: 56
      m_TileSpriteIndex: 56
      m_TileMatrixIndex: 0
      m_TileColorIndex: 0
      m_ObjectToInstantiate: {fileID: 0}
      m_TileFlags: 1
      m_ColliderType: 1
  - first: {x: -1, y: -3, z: 0}
    second:
      m_TileIndex: 33
      m_TileSpriteIndex: 33
      m_TileMatrixIndex: 0
      m_TileColorIndex: 0
      m_ObjectToInstantiate: {fileID: 0}
      m_TileFlags: 1
      m_ColliderType: 1
  - first: {x: 2, y: -3, z: 0}
    second:
      m_TileIndex: 34
      m_TileSpriteIndex: 34
      m_TileMatrixIndex: 0
      m_TileColorIndex: 0
      m_ObjectToInstantiate: {fileID: 0}
      m_TileFlags: 1
      m_ColliderType: 1
  - first: {x: 3, y: -3, z: 0}
    second:
      m_TileIndex: 35
      m_TileSpriteIndex: 35
      m_TileMatrixIndex: 0
      m_TileColorIndex: 0
      m_ObjectToInstantiate: {fileID: 0}
      m_TileFlags: 1
      m_ColliderType: 1
  - first: {x: 4, y: -3, z: 0}
    second:
      m_TileIndex: 36
      m_TileSpriteIndex: 36
      m_TileMatrixIndex: 0
      m_TileColorIndex: 0
      m_ObjectToInstantiate: {fileID: 0}
      m_TileFlags: 1
      m_ColliderType: 1
  - first: {x: 6, y: -3, z: 0}
    second:
      m_TileIndex: 37
      m_TileSpriteIndex: 37
      m_TileMatrixIndex: 0
      m_TileColorIndex: 0
      m_ObjectToInstantiate: {fileID: 0}
      m_TileFlags: 1
      m_ColliderType: 1
  - first: {x: 7, y: -3, z: 0}
    second:
      m_TileIndex: 38
      m_TileSpriteIndex: 38
      m_TileMatrixIndex: 0
      m_TileColorIndex: 0
      m_ObjectToInstantiate: {fileID: 0}
      m_TileFlags: 1
      m_ColliderType: 1
  - first: {x: 8, y: -3, z: 0}
    second:
      m_TileIndex: 39
      m_TileSpriteIndex: 39
      m_TileMatrixIndex: 0
      m_TileColorIndex: 0
      m_ObjectToInstantiate: {fileID: 0}
      m_TileFlags: 1
      m_ColliderType: 1
  - first: {x: 9, y: -3, z: 0}
    second:
      m_TileIndex: 40
      m_TileSpriteIndex: 40
      m_TileMatrixIndex: 0
      m_TileColorIndex: 0
      m_ObjectToInstantiate: {fileID: 0}
      m_TileFlags: 1
      m_ColliderType: 1
  - first: {x: 10, y: -3, z: 0}
    second:
      m_TileIndex: 41
      m_TileSpriteIndex: 41
      m_TileMatrixIndex: 0
      m_TileColorIndex: 0
      m_ObjectToInstantiate: {fileID: 0}
      m_TileFlags: 1
      m_ColliderType: 1
  - first: {x: 11, y: -3, z: 0}
    second:
      m_TileIndex: 42
      m_TileSpriteIndex: 42
      m_TileMatrixIndex: 0
      m_TileColorIndex: 0
      m_ObjectToInstantiate: {fileID: 0}
      m_TileFlags: 1
      m_ColliderType: 1
  - first: {x: 12, y: -3, z: 0}
    second:
      m_TileIndex: 43
      m_TileSpriteIndex: 43
      m_TileMatrixIndex: 0
      m_TileColorIndex: 0
      m_ObjectToInstantiate: {fileID: 0}
      m_TileFlags: 1
      m_ColliderType: 1
  - first: {x: 13, y: -3, z: 0}
    second:
      m_TileIndex: 44
      m_TileSpriteIndex: 44
      m_TileMatrixIndex: 0
      m_TileColorIndex: 0
      m_ObjectToInstantiate: {fileID: 0}
      m_TileFlags: 1
      m_ColliderType: 1
  - first: {x: -1, y: -2, z: 0}
    second:
      m_TileIndex: 25
      m_TileSpriteIndex: 25
      m_TileMatrixIndex: 0
      m_TileColorIndex: 0
      m_ObjectToInstantiate: {fileID: 0}
      m_TileFlags: 1
      m_ColliderType: 1
  - first: {x: 1, y: -2, z: 0}
    second:
      m_TileIndex: 26
      m_TileSpriteIndex: 26
      m_TileMatrixIndex: 0
      m_TileColorIndex: 0
      m_ObjectToInstantiate: {fileID: 0}
      m_TileFlags: 1
      m_ColliderType: 1
  - first: {x: 3, y: -2, z: 0}
    second:
      m_TileIndex: 27
      m_TileSpriteIndex: 27
      m_TileMatrixIndex: 0
      m_TileColorIndex: 0
      m_ObjectToInstantiate: {fileID: 0}
      m_TileFlags: 1
      m_ColliderType: 1
  - first: {x: 4, y: -2, z: 0}
    second:
      m_TileIndex: 28
      m_TileSpriteIndex: 28
      m_TileMatrixIndex: 0
      m_TileColorIndex: 0
      m_ObjectToInstantiate: {fileID: 0}
      m_TileFlags: 1
      m_ColliderType: 1
  - first: {x: 5, y: -2, z: 0}
    second:
      m_TileIndex: 29
      m_TileSpriteIndex: 29
      m_TileMatrixIndex: 0
      m_TileColorIndex: 0
      m_ObjectToInstantiate: {fileID: 0}
      m_TileFlags: 1
      m_ColliderType: 1
  - first: {x: 7, y: -2, z: 0}
    second:
      m_TileIndex: 30
      m_TileSpriteIndex: 30
      m_TileMatrixIndex: 0
      m_TileColorIndex: 0
      m_ObjectToInstantiate: {fileID: 0}
      m_TileFlags: 1
      m_ColliderType: 1
  - first: {x: 8, y: -2, z: 0}
    second:
      m_TileIndex: 31
      m_TileSpriteIndex: 31
      m_TileMatrixIndex: 0
      m_TileColorIndex: 0
      m_ObjectToInstantiate: {fileID: 0}
      m_TileFlags: 1
      m_ColliderType: 1
  - first: {x: 9, y: -2, z: 0}
    second:
      m_TileIndex: 32
      m_TileSpriteIndex: 32
      m_TileMatrixIndex: 0
      m_TileColorIndex: 0
      m_ObjectToInstantiate: {fileID: 0}
      m_TileFlags: 1
      m_ColliderType: 1
  - first: {x: 0, y: -1, z: 0}
    second:
      m_TileIndex: 15
      m_TileSpriteIndex: 15
      m_TileMatrixIndex: 0
      m_TileColorIndex: 0
      m_ObjectToInstantiate: {fileID: 0}
      m_TileFlags: 1
      m_ColliderType: 1
  - first: {x: 1, y: -1, z: 0}
    second:
      m_TileIndex: 16
      m_TileSpriteIndex: 16
      m_TileMatrixIndex: 0
      m_TileColorIndex: 0
      m_ObjectToInstantiate: {fileID: 0}
      m_TileFlags: 1
      m_ColliderType: 1
  - first: {x: 2, y: -1, z: 0}
    second:
      m_TileIndex: 17
      m_TileSpriteIndex: 17
      m_TileMatrixIndex: 0
      m_TileColorIndex: 0
      m_ObjectToInstantiate: {fileID: 0}
      m_TileFlags: 1
      m_ColliderType: 1
  - first: {x: 3, y: -1, z: 0}
    second:
      m_TileIndex: 18
      m_TileSpriteIndex: 18
      m_TileMatrixIndex: 0
      m_TileColorIndex: 0
      m_ObjectToInstantiate: {fileID: 0}
      m_TileFlags: 1
      m_ColliderType: 1
  - first: {x: 4, y: -1, z: 0}
    second:
      m_TileIndex: 19
      m_TileSpriteIndex: 19
      m_TileMatrixIndex: 0
      m_TileColorIndex: 0
      m_ObjectToInstantiate: {fileID: 0}
      m_TileFlags: 1
      m_ColliderType: 1
  - first: {x: 5, y: -1, z: 0}
    second:
      m_TileIndex: 20
      m_TileSpriteIndex: 20
      m_TileMatrixIndex: 0
      m_TileColorIndex: 0
      m_ObjectToInstantiate: {fileID: 0}
      m_TileFlags: 1
      m_ColliderType: 1
  - first: {x: 6, y: -1, z: 0}
    second:
      m_TileIndex: 21
      m_TileSpriteIndex: 21
      m_TileMatrixIndex: 0
      m_TileColorIndex: 0
      m_ObjectToInstantiate: {fileID: 0}
      m_TileFlags: 1
      m_ColliderType: 1
  - first: {x: 7, y: -1, z: 0}
    second:
      m_TileIndex: 22
      m_TileSpriteIndex: 22
      m_TileMatrixIndex: 0
      m_TileColorIndex: 0
      m_ObjectToInstantiate: {fileID: 0}
      m_TileFlags: 1
      m_ColliderType: 1
  - first: {x: 8, y: -1, z: 0}
    second:
      m_TileIndex: 23
      m_TileSpriteIndex: 23
      m_TileMatrixIndex: 0
      m_TileColorIndex: 0
      m_ObjectToInstantiate: {fileID: 0}
      m_TileFlags: 1
      m_ColliderType: 1
  - first: {x: 9, y: -1, z: 0}
    second:
      m_TileIndex: 24
      m_TileSpriteIndex: 24
      m_TileMatrixIndex: 0
      m_TileColorIndex: 0
      m_ObjectToInstantiate: {fileID: 0}
      m_TileFlags: 1
      m_ColliderType: 1
  - first: {x: 0, y: 0, z: 0}
    second:
      m_TileIndex: 5
      m_TileSpriteIndex: 5
      m_TileMatrixIndex: 0
      m_TileColorIndex: 0
      m_ObjectToInstantiate: {fileID: 0}
      m_TileFlags: 1
      m_ColliderType: 1
  - first: {x: 1, y: 0, z: 0}
    second:
      m_TileIndex: 6
      m_TileSpriteIndex: 6
      m_TileMatrixIndex: 0
      m_TileColorIndex: 0
      m_ObjectToInstantiate: {fileID: 0}
      m_TileFlags: 1
      m_ColliderType: 1
  - first: {x: 2, y: 0, z: 0}
    second:
      m_TileIndex: 7
      m_TileSpriteIndex: 7
      m_TileMatrixIndex: 0
      m_TileColorIndex: 0
      m_ObjectToInstantiate: {fileID: 0}
      m_TileFlags: 1
      m_ColliderType: 1
  - first: {x: 3, y: 0, z: 0}
    second:
      m_TileIndex: 8
      m_TileSpriteIndex: 8
      m_TileMatrixIndex: 0
      m_TileColorIndex: 0
      m_ObjectToInstantiate: {fileID: 0}
      m_TileFlags: 1
      m_ColliderType: 1
  - first: {x: 4, y: 0, z: 0}
    second:
      m_TileIndex: 9
      m_TileSpriteIndex: 9
      m_TileMatrixIndex: 0
      m_TileColorIndex: 0
      m_ObjectToInstantiate: {fileID: 0}
      m_TileFlags: 1
      m_ColliderType: 1
  - first: {x: 5, y: 0, z: 0}
    second:
      m_TileIndex: 10
      m_TileSpriteIndex: 10
      m_TileMatrixIndex: 0
      m_TileColorIndex: 0
      m_ObjectToInstantiate: {fileID: 0}
      m_TileFlags: 1
      m_ColliderType: 1
  - first: {x: 6, y: 0, z: 0}
    second:
      m_TileIndex: 11
      m_TileSpriteIndex: 11
      m_TileMatrixIndex: 0
      m_TileColorIndex: 0
      m_ObjectToInstantiate: {fileID: 0}
      m_TileFlags: 1
      m_ColliderType: 1
  - first: {x: 7, y: 0, z: 0}
    second:
      m_TileIndex: 12
      m_TileSpriteIndex: 12
      m_TileMatrixIndex: 0
      m_TileColorIndex: 0
      m_ObjectToInstantiate: {fileID: 0}
      m_TileFlags: 1
      m_ColliderType: 1
  - first: {x: 8, y: 0, z: 0}
    second:
      m_TileIndex: 13
      m_TileSpriteIndex: 13
      m_TileMatrixIndex: 0
      m_TileColorIndex: 0
      m_ObjectToInstantiate: {fileID: 0}
      m_TileFlags: 1
      m_ColliderType: 1
  - first: {x: 9, y: 0, z: 0}
    second:
      m_TileIndex: 14
      m_TileSpriteIndex: 14
      m_TileMatrixIndex: 0
      m_TileColorIndex: 0
      m_ObjectToInstantiate: {fileID: 0}
      m_TileFlags: 1
      m_ColliderType: 1
  - first: {x: 6, y: 1, z: 0}
    second:
      m_TileIndex: 0
      m_TileSpriteIndex: 0
      m_TileMatrixIndex: 0
      m_TileColorIndex: 0
      m_ObjectToInstantiate: {fileID: 0}
      m_TileFlags: 1
      m_ColliderType: 1
  - first: {x: 7, y: 1, z: 0}
    second:
      m_TileIndex: 1
      m_TileSpriteIndex: 1
      m_TileMatrixIndex: 0
      m_TileColorIndex: 0
      m_ObjectToInstantiate: {fileID: 0}
      m_TileFlags: 1
      m_ColliderType: 1
  - first: {x: 8, y: 1, z: 0}
    second:
      m_TileIndex: 2
      m_TileSpriteIndex: 2
      m_TileMatrixIndex: 0
      m_TileColorIndex: 0
      m_ObjectToInstantiate: {fileID: 0}
      m_TileFlags: 1
      m_ColliderType: 1
  - first: {x: 9, y: 1, z: 0}
    second:
      m_TileIndex: 3
      m_TileSpriteIndex: 3
      m_TileMatrixIndex: 0
      m_TileColorIndex: 0
      m_ObjectToInstantiate: {fileID: 0}
      m_TileFlags: 1
      m_ColliderType: 1
  - first: {x: 13, y: 1, z: 0}
    second:
      m_TileIndex: 4
      m_TileSpriteIndex: 4
      m_TileMatrixIndex: 0
      m_TileColorIndex: 0
      m_ObjectToInstantiate: {fileID: 0}
      m_TileFlags: 1
      m_ColliderType: 1
  m_AnimatedTiles: {}
  m_TileAssetArray:
  - m_RefCount: 1
    m_Data: {fileID: 11400000, guid: de822ac5ec17f084a8724cad93e127f2, type: 2}
  - m_RefCount: 1
    m_Data: {fileID: 11400000, guid: 9792dd0b53357a94281ae725ab3ff387, type: 2}
  - m_RefCount: 1
    m_Data: {fileID: 11400000, guid: 1893038b8f655144abd9f89010298d00, type: 2}
  - m_RefCount: 1
    m_Data: {fileID: 11400000, guid: 90510c0686074d542b1002a1ccb4f660, type: 2}
  - m_RefCount: 1
    m_Data: {fileID: 11400000, guid: f797359ef6806c945a0f68dad8b95b5c, type: 2}
  - m_RefCount: 1
    m_Data: {fileID: 11400000, guid: b28754fc62d03d44785a856d3ddce4df, type: 2}
  - m_RefCount: 1
    m_Data: {fileID: 11400000, guid: 9114b07263e3efb4fba05970e9a5225a, type: 2}
  - m_RefCount: 1
    m_Data: {fileID: 11400000, guid: 98774d2c688a4d340ab9aa404002e745, type: 2}
  - m_RefCount: 1
    m_Data: {fileID: 11400000, guid: 7f169db17e38b8a49bf5f746511e524e, type: 2}
  - m_RefCount: 1
    m_Data: {fileID: 11400000, guid: ac741531b5716d04b9bde873cf774ca7, type: 2}
  - m_RefCount: 1
    m_Data: {fileID: 11400000, guid: f937e7c47c4597047a6c492372b39e30, type: 2}
  - m_RefCount: 1
    m_Data: {fileID: 11400000, guid: 8a7b08bf0bfb9924c86bcdf2216d4914, type: 2}
  - m_RefCount: 1
    m_Data: {fileID: 11400000, guid: 04ed24e167f66dc45bbcf71997cd0536, type: 2}
  - m_RefCount: 1
    m_Data: {fileID: 11400000, guid: 555e8803192f1144b9fd7cc390a9126b, type: 2}
  - m_RefCount: 1
    m_Data: {fileID: 11400000, guid: fcb7767f963b55048950d71c639647f6, type: 2}
  - m_RefCount: 1
    m_Data: {fileID: 11400000, guid: 20a724042417d6f4381490c5f60497c9, type: 2}
  - m_RefCount: 1
    m_Data: {fileID: 11400000, guid: cabf956c73ceca44f96d57bc1fb6e872, type: 2}
  - m_RefCount: 1
    m_Data: {fileID: 11400000, guid: e46b96d689343d24b9b6d66f23f580f6, type: 2}
  - m_RefCount: 1
    m_Data: {fileID: 11400000, guid: ca3f10361c66be44184126ce22e89fc5, type: 2}
  - m_RefCount: 1
    m_Data: {fileID: 11400000, guid: 25fd97fc0573d9d468da31e211613ddc, type: 2}
  - m_RefCount: 1
    m_Data: {fileID: 11400000, guid: 3773e4c6d37429444aa17ddfaaedf006, type: 2}
  - m_RefCount: 1
    m_Data: {fileID: 11400000, guid: d662bd0f6c02b83498ec7e9d4b83d3dc, type: 2}
  - m_RefCount: 1
    m_Data: {fileID: 11400000, guid: 1fd70fe0c70e6ff408e680625741e4bc, type: 2}
  - m_RefCount: 1
    m_Data: {fileID: 11400000, guid: 1f84f30fa29ab9341a5e2883f5390a03, type: 2}
  - m_RefCount: 1
    m_Data: {fileID: 11400000, guid: 6a604da1e38571445bcf296c7bae9138, type: 2}
  - m_RefCount: 1
    m_Data: {fileID: 11400000, guid: 296959a5c03096d41b7a555aeb3f9332, type: 2}
  - m_RefCount: 1
    m_Data: {fileID: 11400000, guid: 00846cf921491d54bbf7b2b139892e1e, type: 2}
  - m_RefCount: 1
    m_Data: {fileID: 11400000, guid: 23a444472f7f3e64abdd315763ab1fff, type: 2}
  - m_RefCount: 1
    m_Data: {fileID: 11400000, guid: 2d44d380ea5e2bd40baf943ed34c8985, type: 2}
  - m_RefCount: 1
    m_Data: {fileID: 11400000, guid: 0d0154d3870e92641bb8dbdade4fc577, type: 2}
  - m_RefCount: 1
    m_Data: {fileID: 11400000, guid: 5422af6b9a0d69b419d8c3bc249c507e, type: 2}
  - m_RefCount: 1
    m_Data: {fileID: 11400000, guid: ff516203689af524ea6729e4bc89b26a, type: 2}
  - m_RefCount: 1
    m_Data: {fileID: 11400000, guid: 4239d4e32f1dd854a9a2d194480bcd62, type: 2}
  - m_RefCount: 1
    m_Data: {fileID: 11400000, guid: f2cd83a0685b8bd42bab6f1e6c82f75c, type: 2}
  - m_RefCount: 1
    m_Data: {fileID: 11400000, guid: b3f55ad1bfde3c74ab99d97be7d4fd6e, type: 2}
  - m_RefCount: 1
    m_Data: {fileID: 11400000, guid: b03d98ff54bec2f4b86c8a599fa70e2b, type: 2}
  - m_RefCount: 1
    m_Data: {fileID: 11400000, guid: dd9cba2d7d95dd7479595be9d07c7d39, type: 2}
  - m_RefCount: 1
    m_Data: {fileID: 11400000, guid: e304bdbacab74ac4e81bb9ec4afc3188, type: 2}
  - m_RefCount: 1
    m_Data: {fileID: 11400000, guid: db4f07bf54fd3e44491ae6e970e6a68c, type: 2}
  - m_RefCount: 1
    m_Data: {fileID: 11400000, guid: 949daa8e286bfad48853d61278107cb5, type: 2}
  - m_RefCount: 1
    m_Data: {fileID: 11400000, guid: e2b7e8986caad074eb64fe4da38e149d, type: 2}
  - m_RefCount: 1
    m_Data: {fileID: 11400000, guid: 1cb8aa973559f1645a7bf5d08b763999, type: 2}
  - m_RefCount: 1
    m_Data: {fileID: 11400000, guid: 99807e10a04c870478c61b8bdb172619, type: 2}
  - m_RefCount: 1
    m_Data: {fileID: 11400000, guid: 4a27f39e5ce8c3643874d6f03c272004, type: 2}
  - m_RefCount: 1
    m_Data: {fileID: 11400000, guid: eb525919ef5fe88418efded7a8c10c06, type: 2}
  - m_RefCount: 1
    m_Data: {fileID: 11400000, guid: 1da360803e0d7ae429a213debb89b9f2, type: 2}
  - m_RefCount: 1
    m_Data: {fileID: 11400000, guid: 498a68f48c602d5448f0600da55e18d0, type: 2}
  - m_RefCount: 1
    m_Data: {fileID: 11400000, guid: 251f465c8f398bd40b0315b30f3a1576, type: 2}
  - m_RefCount: 1
    m_Data: {fileID: 11400000, guid: 5a7be5036e2bf2e42ae5bf1fb2ba608c, type: 2}
  - m_RefCount: 1
    m_Data: {fileID: 11400000, guid: f95a8988e021d2b4498cc9b570bb98e4, type: 2}
  - m_RefCount: 1
    m_Data: {fileID: 11400000, guid: 62f62eb0616774e41b2030bae03dc5d4, type: 2}
  - m_RefCount: 1
    m_Data: {fileID: 11400000, guid: fea2cbf65f17210458168569548bedb5, type: 2}
  - m_RefCount: 1
    m_Data: {fileID: 11400000, guid: 7ed1cd80397373f42901c9c34941362b, type: 2}
  - m_RefCount: 1
    m_Data: {fileID: 11400000, guid: 2b9bbe3f8fde0344fb22ad508f82ce0e, type: 2}
  - m_RefCount: 1
    m_Data: {fileID: 11400000, guid: 4afbcf6360ad61645aefbde69b7f0ab4, type: 2}
  - m_RefCount: 1
    m_Data: {fileID: 11400000, guid: d48ed358ff65ba34cb12bb4c40a2ce40, type: 2}
  - m_RefCount: 1
    m_Data: {fileID: 11400000, guid: d3214a53228285849a0603938bb7d820, type: 2}
  - m_RefCount: 1
    m_Data: {fileID: 11400000, guid: 0f9c1422d3eb5b94ba879bdb2c79dab3, type: 2}
  - m_RefCount: 1
    m_Data: {fileID: 11400000, guid: 1cc86e11b0aa2c344a6272c84a40dcd0, type: 2}
  - m_RefCount: 1
    m_Data: {fileID: 11400000, guid: 3233055c75c5ba0498040c5dd3c3bce6, type: 2}
  - m_RefCount: 1
    m_Data: {fileID: 11400000, guid: d54ec80ad646908479af21ec357fc976, type: 2}
  - m_RefCount: 1
    m_Data: {fileID: 11400000, guid: 2f3c83754642a464fb95c14e28fb41a5, type: 2}
  - m_RefCount: 1
    m_Data: {fileID: 11400000, guid: 13cef911347d37d41957acae04fd6046, type: 2}
  - m_RefCount: 1
    m_Data: {fileID: 11400000, guid: 80826fcc66b928d4ea42003923a861cf, type: 2}
  - m_RefCount: 1
    m_Data: {fileID: 11400000, guid: 1cc3255f816255045a0dd7e2310a31b7, type: 2}
  - m_RefCount: 1
    m_Data: {fileID: 11400000, guid: ba90f505eaa465347a0874e21777ec30, type: 2}
  - m_RefCount: 1
    m_Data: {fileID: 11400000, guid: 8d3bd03e7c119644e91eb0d462e8966f, type: 2}
  - m_RefCount: 1
    m_Data: {fileID: 11400000, guid: f61b81b9d3ebf78438c29bc8357a18d0, type: 2}
  - m_RefCount: 1
    m_Data: {fileID: 11400000, guid: 993b6a972814d504d8588c0ccc15d514, type: 2}
  - m_RefCount: 1
    m_Data: {fileID: 11400000, guid: 39f92fdb3d4ab0646b0779ebb11b4eb9, type: 2}
  - m_RefCount: 1
    m_Data: {fileID: 11400000, guid: acf54d3655144b941a13212fae702a06, type: 2}
  - m_RefCount: 1
    m_Data: {fileID: 11400000, guid: b3a9f34394e95aa4ca1d8003b2e1bc2a, type: 2}
  - m_RefCount: 1
    m_Data: {fileID: 11400000, guid: 5c904cd2b1afaf645be2d2093fc26650, type: 2}
  - m_RefCount: 1
    m_Data: {fileID: 11400000, guid: 85a886100f54a2e4ba402e205dca86b4, type: 2}
  - m_RefCount: 1
    m_Data: {fileID: 11400000, guid: 0cc77d91f6bd6a147abe343d93cf30cc, type: 2}
  - m_RefCount: 1
    m_Data: {fileID: 11400000, guid: 1444dc957f625434596d8edf22724146, type: 2}
  - m_RefCount: 1
    m_Data: {fileID: 11400000, guid: 21a80b5fca35a6b459450c6f64121471, type: 2}
  - m_RefCount: 1
    m_Data: {fileID: 11400000, guid: e4645e52e3590b047842c6460adf8690, type: 2}
  - m_RefCount: 1
    m_Data: {fileID: 11400000, guid: ae38fe52f5bcb1142aac238056f76e62, type: 2}
  - m_RefCount: 1
    m_Data: {fileID: 11400000, guid: ebcd31059ba35ac4ba63a0eedf19522a, type: 2}
  - m_RefCount: 1
    m_Data: {fileID: 11400000, guid: 320e129698ed76b4bac86f48528a051f, type: 2}
  - m_RefCount: 1
    m_Data: {fileID: 11400000, guid: 2437563f22084a74681e88ddc1e4c38e, type: 2}
  - m_RefCount: 1
    m_Data: {fileID: 11400000, guid: 615b302fc3f8ec34bba0822a6e79f5de, type: 2}
  - m_RefCount: 1
    m_Data: {fileID: 11400000, guid: 94275f1e2ede3a04fba8ceeeb32b8dff, type: 2}
  - m_RefCount: 1
    m_Data: {fileID: 11400000, guid: 06c0728ad75063e4fb0e856df5a8663a, type: 2}
  - m_RefCount: 1
    m_Data: {fileID: 11400000, guid: 0c5c10505aa68284fa94481dbc288761, type: 2}
  - m_RefCount: 1
    m_Data: {fileID: 11400000, guid: 5ba18f92bb5239f40a333c0ab62e9521, type: 2}
  - m_RefCount: 1
    m_Data: {fileID: 11400000, guid: ad0d9e73cba33b948890e80ce91801db, type: 2}
  - m_RefCount: 1
    m_Data: {fileID: 11400000, guid: 54af1f17db4f0cf489d88f75e12464c6, type: 2}
  - m_RefCount: 1
    m_Data: {fileID: 11400000, guid: db15102d423af694ca5909b7148b24f4, type: 2}
  - m_RefCount: 1
    m_Data: {fileID: 11400000, guid: 451960a7bce689d4fb96d1b23ec475d9, type: 2}
  - m_RefCount: 1
    m_Data: {fileID: 11400000, guid: 8dc81a18ccae32848a9c64570504c2fd, type: 2}
  - m_RefCount: 1
    m_Data: {fileID: 11400000, guid: b3787d606c9157b46b86cb5c8c90fdc8, type: 2}
  - m_RefCount: 1
    m_Data: {fileID: 11400000, guid: 8a0a1f715c91b7c48aacb8b89c7cef8d, type: 2}
  - m_RefCount: 1
    m_Data: {fileID: 11400000, guid: 2353b94b6b545f940b79abcca09643fc, type: 2}
  - m_RefCount: 1
    m_Data: {fileID: 11400000, guid: c11d0978661f1bf438c1479af1d1a86d, type: 2}
  - m_RefCount: 1
    m_Data: {fileID: 11400000, guid: 7d3ae299ee007b24f91bdade5a55a9a4, type: 2}
  - m_RefCount: 1
    m_Data: {fileID: 11400000, guid: 1cfca166a5109fc40a85cc94f9551c8d, type: 2}
  - m_RefCount: 1
    m_Data: {fileID: 11400000, guid: 71bfd818dccc2484bae438abb0b81126, type: 2}
  - m_RefCount: 1
    m_Data: {fileID: 11400000, guid: 7820109a1ebcd9f46bd1bf94368b0337, type: 2}
  - m_RefCount: 1
    m_Data: {fileID: 11400000, guid: 1d154e5a55c9d154eb5b4111e2b8d8c5, type: 2}
  - m_RefCount: 1
    m_Data: {fileID: 11400000, guid: f4b28582f4184fb4f81a5acee534d920, type: 2}
  - m_RefCount: 1
    m_Data: {fileID: 11400000, guid: 520e0a17b48627c4cb4c484d73159f1c, type: 2}
  - m_RefCount: 1
    m_Data: {fileID: 11400000, guid: 4f705bd17255b0a40b238faa07f90141, type: 2}
  - m_RefCount: 1
    m_Data: {fileID: 11400000, guid: 313bc8b630cff884e9db4e8416e1c71f, type: 2}
  - m_RefCount: 1
    m_Data: {fileID: 11400000, guid: 78ba2902f101f01418f14b8295927a37, type: 2}
  - m_RefCount: 1
    m_Data: {fileID: 11400000, guid: c7861083a39f7a143935e135a938c11e, type: 2}
  - m_RefCount: 1
    m_Data: {fileID: 11400000, guid: 9941ab59f9e0f264cb60421ef1c32bbd, type: 2}
  - m_RefCount: 1
    m_Data: {fileID: 11400000, guid: dc7d52d055e885543b16280c391f6d15, type: 2}
  - m_RefCount: 1
    m_Data: {fileID: 11400000, guid: e437ce17a68795b4a8c91398c0567d86, type: 2}
  - m_RefCount: 1
    m_Data: {fileID: 11400000, guid: 2f3cc854e4a8dd74dae91b7d76cd101a, type: 2}
  - m_RefCount: 1
    m_Data: {fileID: 11400000, guid: 81a07af5f5e5b724fb18b417766b4075, type: 2}
  - m_RefCount: 1
    m_Data: {fileID: 11400000, guid: 2f345111a2566ab40ab0d99dfc016c85, type: 2}
  - m_RefCount: 1
    m_Data: {fileID: 11400000, guid: 0d8b2fd81c692fa449aad81685a52068, type: 2}
  - m_RefCount: 1
    m_Data: {fileID: 11400000, guid: 4a07620a07792e7448a154c03cb99f46, type: 2}
  - m_RefCount: 1
    m_Data: {fileID: 11400000, guid: 78468b3c906ee7e4bac0dcf4b6cc103a, type: 2}
  - m_RefCount: 1
    m_Data: {fileID: 11400000, guid: ce0b34a565807eb40bd6d003a704328e, type: 2}
  m_TileSpriteArray:
  - m_RefCount: 1
    m_Data: {fileID: 21300078, guid: afcfac835069dfc4486263172580d0a2, type: 3}
  - m_RefCount: 1
    m_Data: {fileID: 21300080, guid: afcfac835069dfc4486263172580d0a2, type: 3}
  - m_RefCount: 1
    m_Data: {fileID: 21300082, guid: afcfac835069dfc4486263172580d0a2, type: 3}
  - m_RefCount: 1
    m_Data: {fileID: 21300084, guid: afcfac835069dfc4486263172580d0a2, type: 3}
  - m_RefCount: 1
    m_Data: {fileID: 21300086, guid: afcfac835069dfc4486263172580d0a2, type: 3}
  - m_RefCount: 1
    m_Data: {fileID: 21300088, guid: afcfac835069dfc4486263172580d0a2, type: 3}
  - m_RefCount: 1
    m_Data: {fileID: 21300090, guid: afcfac835069dfc4486263172580d0a2, type: 3}
  - m_RefCount: 1
    m_Data: {fileID: 21300092, guid: afcfac835069dfc4486263172580d0a2, type: 3}
  - m_RefCount: 1
    m_Data: {fileID: 21300094, guid: afcfac835069dfc4486263172580d0a2, type: 3}
  - m_RefCount: 1
    m_Data: {fileID: 21300096, guid: afcfac835069dfc4486263172580d0a2, type: 3}
  - m_RefCount: 1
    m_Data: {fileID: 21300098, guid: afcfac835069dfc4486263172580d0a2, type: 3}
  - m_RefCount: 1
    m_Data: {fileID: 21300100, guid: afcfac835069dfc4486263172580d0a2, type: 3}
  - m_RefCount: 1
    m_Data: {fileID: 21300102, guid: afcfac835069dfc4486263172580d0a2, type: 3}
  - m_RefCount: 1
    m_Data: {fileID: 21300104, guid: afcfac835069dfc4486263172580d0a2, type: 3}
  - m_RefCount: 1
    m_Data: {fileID: 21300106, guid: afcfac835069dfc4486263172580d0a2, type: 3}
  - m_RefCount: 1
    m_Data: {fileID: 21300108, guid: afcfac835069dfc4486263172580d0a2, type: 3}
  - m_RefCount: 1
    m_Data: {fileID: 21300110, guid: afcfac835069dfc4486263172580d0a2, type: 3}
  - m_RefCount: 1
    m_Data: {fileID: 21300112, guid: afcfac835069dfc4486263172580d0a2, type: 3}
  - m_RefCount: 1
    m_Data: {fileID: 21300114, guid: afcfac835069dfc4486263172580d0a2, type: 3}
  - m_RefCount: 1
    m_Data: {fileID: 21300116, guid: afcfac835069dfc4486263172580d0a2, type: 3}
  - m_RefCount: 1
    m_Data: {fileID: 21300118, guid: afcfac835069dfc4486263172580d0a2, type: 3}
  - m_RefCount: 1
    m_Data: {fileID: 21300120, guid: afcfac835069dfc4486263172580d0a2, type: 3}
  - m_RefCount: 1
    m_Data: {fileID: 21300122, guid: afcfac835069dfc4486263172580d0a2, type: 3}
  - m_RefCount: 1
    m_Data: {fileID: 21300124, guid: afcfac835069dfc4486263172580d0a2, type: 3}
  - m_RefCount: 1
    m_Data: {fileID: 21300126, guid: afcfac835069dfc4486263172580d0a2, type: 3}
  - m_RefCount: 1
    m_Data: {fileID: 21300128, guid: afcfac835069dfc4486263172580d0a2, type: 3}
  - m_RefCount: 1
    m_Data: {fileID: 21300130, guid: afcfac835069dfc4486263172580d0a2, type: 3}
  - m_RefCount: 1
    m_Data: {fileID: 21300132, guid: afcfac835069dfc4486263172580d0a2, type: 3}
  - m_RefCount: 1
    m_Data: {fileID: 21300134, guid: afcfac835069dfc4486263172580d0a2, type: 3}
  - m_RefCount: 1
    m_Data: {fileID: 21300136, guid: afcfac835069dfc4486263172580d0a2, type: 3}
  - m_RefCount: 1
    m_Data: {fileID: 21300138, guid: afcfac835069dfc4486263172580d0a2, type: 3}
  - m_RefCount: 1
    m_Data: {fileID: 21300140, guid: afcfac835069dfc4486263172580d0a2, type: 3}
  - m_RefCount: 1
    m_Data: {fileID: 21300142, guid: afcfac835069dfc4486263172580d0a2, type: 3}
  - m_RefCount: 1
    m_Data: {fileID: 21300144, guid: afcfac835069dfc4486263172580d0a2, type: 3}
  - m_RefCount: 1
    m_Data: {fileID: 21300146, guid: afcfac835069dfc4486263172580d0a2, type: 3}
  - m_RefCount: 1
    m_Data: {fileID: 21300148, guid: afcfac835069dfc4486263172580d0a2, type: 3}
  - m_RefCount: 1
    m_Data: {fileID: 21300150, guid: afcfac835069dfc4486263172580d0a2, type: 3}
  - m_RefCount: 1
    m_Data: {fileID: 21300152, guid: afcfac835069dfc4486263172580d0a2, type: 3}
  - m_RefCount: 1
    m_Data: {fileID: 21300154, guid: afcfac835069dfc4486263172580d0a2, type: 3}
  - m_RefCount: 1
    m_Data: {fileID: 21300156, guid: afcfac835069dfc4486263172580d0a2, type: 3}
  - m_RefCount: 1
    m_Data: {fileID: 21300158, guid: afcfac835069dfc4486263172580d0a2, type: 3}
  - m_RefCount: 1
    m_Data: {fileID: 21300160, guid: afcfac835069dfc4486263172580d0a2, type: 3}
  - m_RefCount: 1
    m_Data: {fileID: 21300162, guid: afcfac835069dfc4486263172580d0a2, type: 3}
  - m_RefCount: 1
    m_Data: {fileID: 21300164, guid: afcfac835069dfc4486263172580d0a2, type: 3}
  - m_RefCount: 1
    m_Data: {fileID: 21300166, guid: afcfac835069dfc4486263172580d0a2, type: 3}
  - m_RefCount: 1
    m_Data: {fileID: 21300168, guid: afcfac835069dfc4486263172580d0a2, type: 3}
  - m_RefCount: 1
    m_Data: {fileID: 21300170, guid: afcfac835069dfc4486263172580d0a2, type: 3}
  - m_RefCount: 1
    m_Data: {fileID: 21300172, guid: afcfac835069dfc4486263172580d0a2, type: 3}
  - m_RefCount: 1
    m_Data: {fileID: 21300174, guid: afcfac835069dfc4486263172580d0a2, type: 3}
  - m_RefCount: 1
    m_Data: {fileID: 21300176, guid: afcfac835069dfc4486263172580d0a2, type: 3}
  - m_RefCount: 1
    m_Data: {fileID: 21300178, guid: afcfac835069dfc4486263172580d0a2, type: 3}
  - m_RefCount: 1
    m_Data: {fileID: 21300180, guid: afcfac835069dfc4486263172580d0a2, type: 3}
  - m_RefCount: 1
    m_Data: {fileID: 21300182, guid: afcfac835069dfc4486263172580d0a2, type: 3}
  - m_RefCount: 1
    m_Data: {fileID: 21300184, guid: afcfac835069dfc4486263172580d0a2, type: 3}
  - m_RefCount: 1
    m_Data: {fileID: 21300186, guid: afcfac835069dfc4486263172580d0a2, type: 3}
  - m_RefCount: 1
    m_Data: {fileID: 21300188, guid: afcfac835069dfc4486263172580d0a2, type: 3}
  - m_RefCount: 1
    m_Data: {fileID: 21300190, guid: afcfac835069dfc4486263172580d0a2, type: 3}
  - m_RefCount: 1
    m_Data: {fileID: 21300192, guid: afcfac835069dfc4486263172580d0a2, type: 3}
  - m_RefCount: 1
    m_Data: {fileID: 21300194, guid: afcfac835069dfc4486263172580d0a2, type: 3}
  - m_RefCount: 1
    m_Data: {fileID: 21300196, guid: afcfac835069dfc4486263172580d0a2, type: 3}
  - m_RefCount: 1
    m_Data: {fileID: 21300198, guid: afcfac835069dfc4486263172580d0a2, type: 3}
  - m_RefCount: 1
    m_Data: {fileID: 21300200, guid: afcfac835069dfc4486263172580d0a2, type: 3}
  - m_RefCount: 1
    m_Data: {fileID: 21300202, guid: afcfac835069dfc4486263172580d0a2, type: 3}
  - m_RefCount: 1
    m_Data: {fileID: 21300204, guid: afcfac835069dfc4486263172580d0a2, type: 3}
  - m_RefCount: 1
    m_Data: {fileID: 21300206, guid: afcfac835069dfc4486263172580d0a2, type: 3}
  - m_RefCount: 1
    m_Data: {fileID: 21300208, guid: afcfac835069dfc4486263172580d0a2, type: 3}
  - m_RefCount: 1
    m_Data: {fileID: 21300210, guid: afcfac835069dfc4486263172580d0a2, type: 3}
  - m_RefCount: 1
    m_Data: {fileID: 21300212, guid: afcfac835069dfc4486263172580d0a2, type: 3}
  - m_RefCount: 1
    m_Data: {fileID: 21300214, guid: afcfac835069dfc4486263172580d0a2, type: 3}
  - m_RefCount: 1
    m_Data: {fileID: 21300216, guid: afcfac835069dfc4486263172580d0a2, type: 3}
  - m_RefCount: 1
    m_Data: {fileID: 21300218, guid: afcfac835069dfc4486263172580d0a2, type: 3}
  - m_RefCount: 1
    m_Data: {fileID: 21300220, guid: afcfac835069dfc4486263172580d0a2, type: 3}
  - m_RefCount: 1
    m_Data: {fileID: 21300222, guid: afcfac835069dfc4486263172580d0a2, type: 3}
  - m_RefCount: 1
    m_Data: {fileID: 21300224, guid: afcfac835069dfc4486263172580d0a2, type: 3}
  - m_RefCount: 1
    m_Data: {fileID: 21300226, guid: afcfac835069dfc4486263172580d0a2, type: 3}
  - m_RefCount: 1
    m_Data: {fileID: 21300228, guid: afcfac835069dfc4486263172580d0a2, type: 3}
  - m_RefCount: 1
    m_Data: {fileID: 21300230, guid: afcfac835069dfc4486263172580d0a2, type: 3}
  - m_RefCount: 1
    m_Data: {fileID: 21300232, guid: afcfac835069dfc4486263172580d0a2, type: 3}
  - m_RefCount: 1
    m_Data: {fileID: 21300234, guid: afcfac835069dfc4486263172580d0a2, type: 3}
  - m_RefCount: 1
    m_Data: {fileID: 21300236, guid: afcfac835069dfc4486263172580d0a2, type: 3}
  - m_RefCount: 1
    m_Data: {fileID: 21300238, guid: afcfac835069dfc4486263172580d0a2, type: 3}
  - m_RefCount: 1
    m_Data: {fileID: 21300240, guid: afcfac835069dfc4486263172580d0a2, type: 3}
  - m_RefCount: 1
    m_Data: {fileID: 21300242, guid: afcfac835069dfc4486263172580d0a2, type: 3}
  - m_RefCount: 1
    m_Data: {fileID: 21300244, guid: afcfac835069dfc4486263172580d0a2, type: 3}
  - m_RefCount: 1
    m_Data: {fileID: 21300246, guid: afcfac835069dfc4486263172580d0a2, type: 3}
  - m_RefCount: 1
    m_Data: {fileID: 21300248, guid: afcfac835069dfc4486263172580d0a2, type: 3}
  - m_RefCount: 1
    m_Data: {fileID: 21300250, guid: afcfac835069dfc4486263172580d0a2, type: 3}
  - m_RefCount: 1
    m_Data: {fileID: 21300252, guid: afcfac835069dfc4486263172580d0a2, type: 3}
  - m_RefCount: 1
    m_Data: {fileID: 21300254, guid: afcfac835069dfc4486263172580d0a2, type: 3}
  - m_RefCount: 1
    m_Data: {fileID: 21300256, guid: afcfac835069dfc4486263172580d0a2, type: 3}
  - m_RefCount: 1
    m_Data: {fileID: 21300258, guid: afcfac835069dfc4486263172580d0a2, type: 3}
  - m_RefCount: 1
    m_Data: {fileID: 21300260, guid: afcfac835069dfc4486263172580d0a2, type: 3}
  - m_RefCount: 1
    m_Data: {fileID: 21300262, guid: afcfac835069dfc4486263172580d0a2, type: 3}
  - m_RefCount: 1
    m_Data: {fileID: 21300264, guid: afcfac835069dfc4486263172580d0a2, type: 3}
  - m_RefCount: 1
    m_Data: {fileID: 21300266, guid: afcfac835069dfc4486263172580d0a2, type: 3}
  - m_RefCount: 1
    m_Data: {fileID: 21300268, guid: afcfac835069dfc4486263172580d0a2, type: 3}
  - m_RefCount: 1
    m_Data: {fileID: 21300270, guid: afcfac835069dfc4486263172580d0a2, type: 3}
  - m_RefCount: 1
    m_Data: {fileID: 21300272, guid: afcfac835069dfc4486263172580d0a2, type: 3}
  - m_RefCount: 1
    m_Data: {fileID: 21300274, guid: afcfac835069dfc4486263172580d0a2, type: 3}
  - m_RefCount: 1
    m_Data: {fileID: 21300276, guid: afcfac835069dfc4486263172580d0a2, type: 3}
  - m_RefCount: 1
    m_Data: {fileID: 21300278, guid: afcfac835069dfc4486263172580d0a2, type: 3}
  - m_RefCount: 1
    m_Data: {fileID: 21300280, guid: afcfac835069dfc4486263172580d0a2, type: 3}
  - m_RefCount: 1
    m_Data: {fileID: 21300282, guid: afcfac835069dfc4486263172580d0a2, type: 3}
  - m_RefCount: 1
    m_Data: {fileID: 21300284, guid: afcfac835069dfc4486263172580d0a2, type: 3}
  - m_RefCount: 1
    m_Data: {fileID: 21300286, guid: afcfac835069dfc4486263172580d0a2, type: 3}
  - m_RefCount: 1
    m_Data: {fileID: 21300288, guid: afcfac835069dfc4486263172580d0a2, type: 3}
  - m_RefCount: 1
    m_Data: {fileID: 21300290, guid: afcfac835069dfc4486263172580d0a2, type: 3}
  - m_RefCount: 1
    m_Data: {fileID: 21300292, guid: afcfac835069dfc4486263172580d0a2, type: 3}
  - m_RefCount: 1
    m_Data: {fileID: 21300294, guid: afcfac835069dfc4486263172580d0a2, type: 3}
  - m_RefCount: 1
    m_Data: {fileID: 21300296, guid: afcfac835069dfc4486263172580d0a2, type: 3}
  - m_RefCount: 1
    m_Data: {fileID: 21300298, guid: afcfac835069dfc4486263172580d0a2, type: 3}
  - m_RefCount: 1
    m_Data: {fileID: 21300300, guid: afcfac835069dfc4486263172580d0a2, type: 3}
  - m_RefCount: 1
    m_Data: {fileID: 21300302, guid: afcfac835069dfc4486263172580d0a2, type: 3}
  - m_RefCount: 1
    m_Data: {fileID: 21300304, guid: afcfac835069dfc4486263172580d0a2, type: 3}
  - m_RefCount: 1
    m_Data: {fileID: 21300306, guid: afcfac835069dfc4486263172580d0a2, type: 3}
  - m_RefCount: 1
    m_Data: {fileID: 21300308, guid: afcfac835069dfc4486263172580d0a2, type: 3}
  - m_RefCount: 1
    m_Data: {fileID: 21300310, guid: afcfac835069dfc4486263172580d0a2, type: 3}
  m_TileMatrixArray:
  - m_RefCount: 117
    m_Data:
      e00: 1
      e01: 0
      e02: 0
      e03: 0
      e10: 0
      e11: 1
      e12: 0
      e13: 0
      e20: 0
      e21: 0
      e22: 1
      e23: 0
      e30: 0
      e31: 0
      e32: 0
      e33: 1
  m_TileColorArray:
  - m_RefCount: 117
    m_Data: {r: 1, g: 1, b: 1, a: 1}
  m_AnimationFrameRate: 1
  m_Color: {r: 1, g: 1, b: 1, a: 1}
  m_Origin: {x: -2, y: -10, z: 0}
  m_Size: {x: 16, y: 12, z: 1}
  m_TileAnchor: {x: 0.5, y: 0.5, z: 0}
  m_TileOrientation: 0
  m_TileOrientationMatrix:
    e00: 1
    e01: 0
    e02: 0
    e03: 0
    e10: 0
    e11: 1
    e12: 0
    e13: 0
    e20: 0
    e21: 0
    e22: 1
    e23: 0
    e30: 0
    e31: 0
    e32: 0
    e33: 1
  m_TileRefreshArray:
  - serializedVersion: 1
    m_DirtyIndex: 0
  - serializedVersion: 1
    m_DirtyIndex: 0
  - serializedVersion: 1
    m_DirtyIndex: 0
  - serializedVersion: 1
    m_DirtyIndex: 0
  - serializedVersion: 1
    m_DirtyIndex: 0
  - serializedVersion: 1
    m_DirtyIndex: 0
  - serializedVersion: 1
    m_DirtyIndex: 0
  - serializedVersion: 1
    m_DirtyIndex: 0
  - serializedVersion: 1
    m_DirtyIndex: 0
  - serializedVersion: 1
    m_DirtyIndex: 0
  - serializedVersion: 1
    m_DirtyIndex: 0
  - serializedVersion: 1
    m_DirtyIndex: 0
  - serializedVersion: 1
    m_DirtyIndex: 0
  - serializedVersion: 1
    m_DirtyIndex: 0
  - serializedVersion: 1
    m_DirtyIndex: 0
  - serializedVersion: 1
    m_DirtyIndex: 0
  - serializedVersion: 1
    m_DirtyIndex: 0
  - serializedVersion: 1
    m_DirtyIndex: 0
  - serializedVersion: 1
    m_DirtyIndex: 0
  - serializedVersion: 1
    m_DirtyIndex: 0
  - serializedVersion: 1
    m_DirtyIndex: 0
  - serializedVersion: 1
    m_DirtyIndex: 0
  - serializedVersion: 1
    m_DirtyIndex: 0
  - serializedVersion: 1
    m_DirtyIndex: 0
  - serializedVersion: 1
    m_DirtyIndex: 0
  - serializedVersion: 1
    m_DirtyIndex: 0
  - serializedVersion: 1
    m_DirtyIndex: 0
  - serializedVersion: 1
    m_DirtyIndex: 0
  - serializedVersion: 1
    m_DirtyIndex: 0
  - serializedVersion: 1
    m_DirtyIndex: 0
  - serializedVersion: 1
    m_DirtyIndex: 0
  - serializedVersion: 1
    m_DirtyIndex: 0
  - serializedVersion: 1
    m_DirtyIndex: 0
  - serializedVersion: 1
    m_DirtyIndex: 0
  - serializedVersion: 1
    m_DirtyIndex: 0
  - serializedVersion: 1
    m_DirtyIndex: 0
  - serializedVersion: 1
    m_DirtyIndex: 0
  - serializedVersion: 1
    m_DirtyIndex: 4
  - serializedVersion: 1
    m_DirtyIndex: 0
  - serializedVersion: 1
    m_DirtyIndex: 0
  - serializedVersion: 1
    m_DirtyIndex: 0
  - serializedVersion: 1
    m_DirtyIndex: 0
  - serializedVersion: 1
    m_DirtyIndex: 0
  - serializedVersion: 1
    m_DirtyIndex: 0
  - serializedVersion: 1
    m_DirtyIndex: 0
  - serializedVersion: 1
    m_DirtyIndex: 0
  - serializedVersion: 1
    m_DirtyIndex: 0
  - serializedVersion: 1
    m_DirtyIndex: 0
  - serializedVersion: 1
    m_DirtyIndex: 0
  - serializedVersion: 1
    m_DirtyIndex: 0
  - serializedVersion: 1
    m_DirtyIndex: 0
  - serializedVersion: 1
    m_DirtyIndex: 0
  - serializedVersion: 1
    m_DirtyIndex: 0
  - serializedVersion: 1
    m_DirtyIndex: 0
  - serializedVersion: 1
    m_DirtyIndex: 0
  - serializedVersion: 1
    m_DirtyIndex: 0
  - serializedVersion: 1
    m_DirtyIndex: 0
  - serializedVersion: 1
    m_DirtyIndex: 0
  - serializedVersion: 1
    m_DirtyIndex: 0
  - serializedVersion: 1
    m_DirtyIndex: 0
  - serializedVersion: 1
    m_DirtyIndex: 0
  - serializedVersion: 1
    m_DirtyIndex: 0
  - serializedVersion: 1
    m_DirtyIndex: 0
  - serializedVersion: 1
    m_DirtyIndex: 0
  - serializedVersion: 1
    m_DirtyIndex: 0
  - serializedVersion: 1
    m_DirtyIndex: 0
  - serializedVersion: 1
    m_DirtyIndex: 0
  - serializedVersion: 1
    m_DirtyIndex: 0
  - serializedVersion: 1
    m_DirtyIndex: 0
  - serializedVersion: 1
    m_DirtyIndex: 0
  - serializedVersion: 1
    m_DirtyIndex: 0
  - serializedVersion: 1
    m_DirtyIndex: 0
  - serializedVersion: 1
    m_DirtyIndex: 0
  - serializedVersion: 1
    m_DirtyIndex: 0
  - serializedVersion: 1
    m_DirtyIndex: 0
  - serializedVersion: 1
    m_DirtyIndex: 0
  - serializedVersion: 1
    m_DirtyIndex: 0
  - serializedVersion: 1
    m_DirtyIndex: 0
  - serializedVersion: 1
    m_DirtyIndex: 0
  - serializedVersion: 1
    m_DirtyIndex: 0
  - serializedVersion: 1
    m_DirtyIndex: 0
  - serializedVersion: 1
    m_DirtyIndex: 0
  - serializedVersion: 1
    m_DirtyIndex: 0
  - serializedVersion: 1
    m_DirtyIndex: 0
  - serializedVersion: 1
    m_DirtyIndex: 0
  - serializedVersion: 1
    m_DirtyIndex: 0
  - serializedVersion: 1
    m_DirtyIndex: 0
  - serializedVersion: 1
    m_DirtyIndex: 0
  - serializedVersion: 1
    m_DirtyIndex: 0
  - serializedVersion: 1
    m_DirtyIndex: 0
  - serializedVersion: 1
    m_DirtyIndex: 0
  - serializedVersion: 1
    m_DirtyIndex: 0
  - serializedVersion: 1
    m_DirtyIndex: 0
  - serializedVersion: 1
    m_DirtyIndex: 0
  - serializedVersion: 1
    m_DirtyIndex: 0
  - serializedVersion: 1
    m_DirtyIndex: 0
  - serializedVersion: 1
    m_DirtyIndex: 0
  - serializedVersion: 1
    m_DirtyIndex: 0
  - serializedVersion: 1
    m_DirtyIndex: 0
  - serializedVersion: 1
    m_DirtyIndex: 0
  - serializedVersion: 1
    m_DirtyIndex: 0
  - serializedVersion: 1
    m_DirtyIndex: 0
  - serializedVersion: 1
    m_DirtyIndex: 0
  - serializedVersion: 1
    m_DirtyIndex: 0
  - serializedVersion: 1
    m_DirtyIndex: 0
  - serializedVersion: 1
    m_DirtyIndex: 0
  - serializedVersion: 1
    m_DirtyIndex: 0
  - serializedVersion: 1
    m_DirtyIndex: 0
  - serializedVersion: 1
    m_DirtyIndex: 0
  - serializedVersion: 1
    m_DirtyIndex: 0
  - serializedVersion: 1
    m_DirtyIndex: 0
  - serializedVersion: 1
    m_DirtyIndex: 0
  - serializedVersion: 1
    m_DirtyIndex: 0
  - serializedVersion: 1
    m_DirtyIndex: 0
  - serializedVersion: 1
    m_DirtyIndex: 0
  - serializedVersion: 1
    m_DirtyIndex: 0
  - serializedVersion: 1
    m_DirtyIndex: 0
